ele,prec
1033,40.3
1058,43.3
1070,44.8
1091,37.8
1109,38.8
1113,43.2
1137,46.0
1161,31.5
1186,32.1
1198,34.9
1201,39.7
1207,45.4
1216,46.4
1237,35.4
1253,46.9
1259,43.3
1271,41.6
1271,30.4
1280,44.8
1280,29.6
1292,40.3
1295,39.8
1295,44.0
1298,37.9
1298,37.5
1305,36.6
1311,42.3
1311,29.5
1311,41.1
1311,45.1
1317,32.8
1323,27.4
1338,45.7
1341,39.4
1341,43.1
1372,34.9
1372,40.2
1378,22.3
1381,34.7
1384,41.6
1390,33.4
1396,41.1
1399,42.5
1402,31.3
1408,22.9
1417,29.5
1417,36.1
1417,30.7
1426,26.5
1430,27.2
1433,31.5
1439,25.3
1445,30.1
1454,34.0
1472,37.8
1478,30.3
1478,22.1
1487,34.3
1490,42.3
1497,31.6
1497,28.7
1497,29.7
1497,29.5
1509,35.4
1509,38.4
1518,37.1
1524,41.1
1524,28.1
1527,38.5
1530,32.5
1533,39.9
1536,39.6
1548,35.5
1551,31.1
1551,31.7
1558,28.6
1561,20.1
1561,34.8
1564,32.5
1579,43.4
1579,40.8
1582,33.8
1585,38.3
1585,41.5
1597,28.4
1597,43.1
1600,33.3
1609,29.8
1609,25.8
1612,31.9
1615,39.6
1615,45.8
1615,29.5
1618,48.3
1628,32.9
1631,21.6
1634,37.6
1634,41.6
1637,40.5
1637,35.2
1637,35.7
1646,48.6
1655,49.8
1661,38.7
1676,44.3
1679,30.2
1686,40.7
1692,40.3
1695,37.8
1707,39.7
1719,41.6
1722,43.2
1731,40.7
1734,41.9
1753,33.6
1753,37.9
1762,28.4
1765,22.2
1777,24.3
1780,56.6
1783,38.7
1801,42.5
1801,48.1
1804,30.4
1807,51.9
1807,31.8
1807,53.2
1826,36.8
1832,34.9
1856,39.1
1862,44.5
1871,35.1
1875,37.7
1884,31.8
1884,33.6
1884,35.1
1884,35.6
1896,41.6
1902,47.8
1902,42.1
1905,43.2
1917,38.4
1923,35.7
1923,38.4
1939,52.6
1939,35.9
1945,43.1
1951,33.4
1951,42.8
1957,35.6
1963,41.6
1975,31.1
1996,48.5
1999,42.6
2015,27.1
2045,29.1
2063,60.9
2070,44.2
2070,57.4
2091,40.3
2100,42.0
2121,47.6
2124,46.2
2128,29.3
2134,48.5
2134,45.4
2140,38.4
2146,58.8
2146,42.3
2170,51.3
2182,26.6
2204,44.9
2207,34.1
2207,48.2
2216,52.1
2219,55.9
2219,40.7
2225,55.5
2234,29.6
2240,46.3
2256,60.6
2284,35.6
2298,18.1
2307,38.2
2313,52.9
2320,30.7
2323,46.8
2329,24.7
2332,67.1
2332,37.8
2335,26.5
2338,18.0
2338,19.3
2350,19.4
2350,21.5
2356,58.1
2359,42.4
2362,21.5
2362,35.9
2365,39.1
2368,38.2
2377,70.0
2380,42.0
2396,37.1
2402,25.4
2405,55.4
2405,42.1
2408,32.3
2411,20.4
2414,49.3
2426,55.1
2435,26.6
2438,28.6
2441,41.1
2457,25.1
2460,70.3
2463,52.8
2466,80.0
2472,36.0
2472,27.5
2475,28.4
2487,63.6
2499,40.8
2505,54.0
2512,45.6
2533,37.0
2551,40.7
2557,51.9
2557,35.6
2563,64.8
2563,39.3
2576,52.8
2582,36.4
2594,31.8
2594,29.8
2609,48.6
2612,48.2
2615,40.5
2630,38.1
2649,40.3
2652,63.5
2670,59.4
2685,51.0
2691,67.6
2701,34.1
2707,60.0
2707,26.8
2710,35.9
2713,41.2
2725,25.9
2746,38.5
2758,61.6
2761,68.9
2804,41.6
2804,45.4
2810,42.4
2838,24.1
2874,62.0
2877,103.8
2899,53.1
2902,38.9
2923,49.5
2960,75.7
3005,82.9
3014,68.8
3033,31.3
3048,43.8
3057,49.6
3103,39.9
3133,55.4
3149,61.8
3203,75.7
3240,83.6
3243,115.3
3447,95.2
3508,63.4
3514,59.0